[
  {
    "title": "Dashboard",
    "name": "Dashboard",
    "is_heading": false,
    "is_active": false,
    "link": {
      "name": "dashboard.home"
    },
    "class_name": "",
    "is_icon_class": true,
    "icon": "ri-home-3-line"
  },
  {
    "title": "Ordenes / Compras",
    "name": "Ordenes / Compras",
    "is_active": false,
    "link": {
      "name": "orders.list"
    },
    "class_name": "",
    "is_icon_class": true,
    "icon": "ri-pages-line"
  },
  {
    "title": "Clientes",
    "name": "Clientes",
    "is_heading": false,
    "is_active": false,
    "link": {
      "name": "client.list"
    },
    "class_name": "",
    "is_icon_class": true,
    "icon": "ri-user-line"
  },
  {
    "title": "Calendario de entregas",
    "name": "Calendario de entregas",
    "is_heading": false,
    "is_active": false,
    "link": {
      "name": "calendar.calendar"
    },
    "class_name": "",
    "is_icon_class": true,
    "icon": "ri-calendar-2-line"
  }
]
